[gd_scene load_steps=80 format=2]

[ext_resource path="res://assets/autotile_template_3x3_minimal.png" type="Texture" id=1]
[ext_resource path="res://assets/spikes.png" type="Texture" id=2]
[ext_resource path="res://src/rooms/Room.cs" type="Script" id=3]
[ext_resource path="res://src/rooms/Exit.cs" type="Script" id=4]
[ext_resource path="res://assets/Environment/room6/Room6 blackborder.png" type="Texture" id=5]
[ext_resource path="res://assets/Environment/Background Horizontal.png" type="Texture" id=6]
[ext_resource path="res://assets/Environment/room6/Room6 foliagevine overlay.png" type="Texture" id=7]
[ext_resource path="res://assets/Environment/room6/Room6 Tilemap.png" type="Texture" id=8]
[ext_resource path="res://assets/Tileset.png" type="Texture" id=9]
[ext_resource path="res://src/rooms/KillZone.cs" type="Script" id=10]

[sub_resource type="ConvexPolygonShape2D" id=1]
points = PoolVector2Array( 0, 0, 64, 0, 64, 64, 0, 64 )

[sub_resource type="ConvexPolygonShape2D" id=2]
points = PoolVector2Array( 0, 0, 64, 0, 64, 64, 0, 64 )

[sub_resource type="ConvexPolygonShape2D" id=3]
points = PoolVector2Array( 0, 0, 64, 0, 64, 64, 0, 64 )

[sub_resource type="ConvexPolygonShape2D" id=4]
points = PoolVector2Array( 0, 0, 64, 0, 64, 64, 0, 64 )

[sub_resource type="ConvexPolygonShape2D" id=5]
points = PoolVector2Array( 0, 0, 64, 0, 64, 64, 0, 64 )

[sub_resource type="ConvexPolygonShape2D" id=6]
points = PoolVector2Array( 0, 0, 64, 0, 64, 64, 0, 64 )

[sub_resource type="ConvexPolygonShape2D" id=7]
points = PoolVector2Array( 0, 0, 64, 0, 64, 64, 0, 64 )

[sub_resource type="ConvexPolygonShape2D" id=8]
points = PoolVector2Array( 0, 0, 64, 0, 64, 64, 0, 64 )

[sub_resource type="ConvexPolygonShape2D" id=9]
points = PoolVector2Array( 0, 0, 64, 0, 64, 64, 0, 64 )

[sub_resource type="ConvexPolygonShape2D" id=10]
points = PoolVector2Array( 0, 0, 64, 0, 64, 64, 0, 64 )

[sub_resource type="ConvexPolygonShape2D" id=11]
points = PoolVector2Array( 0, 0, 64, 0, 64, 64, 0, 64 )

[sub_resource type="ConvexPolygonShape2D" id=12]
points = PoolVector2Array( 0, 0, 64, 0, 64, 64, 0, 64 )

[sub_resource type="ConvexPolygonShape2D" id=13]
points = PoolVector2Array( 0, 0, 64, 0, 64, 64, 0, 64 )

[sub_resource type="ConvexPolygonShape2D" id=14]
points = PoolVector2Array( 0, 0, 64, 0, 64, 64, 0, 64 )

[sub_resource type="ConvexPolygonShape2D" id=15]
points = PoolVector2Array( 0, 0, 64, 0, 64, 64, 0, 64 )

[sub_resource type="ConvexPolygonShape2D" id=16]
points = PoolVector2Array( 0, 0, 64, 0, 64, 64, 0, 64 )

[sub_resource type="ConvexPolygonShape2D" id=17]
points = PoolVector2Array( 0, 0, 64, 0, 64, 64, 0, 64 )

[sub_resource type="ConvexPolygonShape2D" id=18]
points = PoolVector2Array( 0, 0, 64, 0, 64, 64, 0, 64 )

[sub_resource type="ConvexPolygonShape2D" id=19]
points = PoolVector2Array( 0, 0, 64, 0, 64, 64, 0, 64 )

[sub_resource type="ConvexPolygonShape2D" id=20]
points = PoolVector2Array( 0, 0, 64, 0, 64, 64, 0, 64 )

[sub_resource type="ConvexPolygonShape2D" id=21]
points = PoolVector2Array( 0, 0, 64, 0, 64, 64, 0, 64 )

[sub_resource type="ConvexPolygonShape2D" id=22]
points = PoolVector2Array( 0, 0, 64, 0, 64, 64, 0, 64 )

[sub_resource type="ConvexPolygonShape2D" id=23]
points = PoolVector2Array( 0, 0, 64, 0, 64, 64, 0, 64 )

[sub_resource type="ConvexPolygonShape2D" id=24]
points = PoolVector2Array( 0, 0, 64, 0, 64, 64, 0, 64 )

[sub_resource type="ConvexPolygonShape2D" id=25]
points = PoolVector2Array( 0, 0, 64, 0, 64, 64, 0, 64 )

[sub_resource type="ConvexPolygonShape2D" id=26]
points = PoolVector2Array( 0, 0, 64, 0, 64, 64, 0, 64 )

[sub_resource type="ConvexPolygonShape2D" id=27]
points = PoolVector2Array( 0, 0, 64, 0, 64, 64, 0, 64 )

[sub_resource type="ConvexPolygonShape2D" id=28]
points = PoolVector2Array( 0, 0, 64, 0, 64, 64, 0, 64 )

[sub_resource type="ConvexPolygonShape2D" id=29]
points = PoolVector2Array( 0, 0, 64, 0, 64, 64, 0, 64 )

[sub_resource type="ConvexPolygonShape2D" id=30]
points = PoolVector2Array( 0, 0, 64, 0, 64, 64, 0, 64 )

[sub_resource type="ConvexPolygonShape2D" id=31]
points = PoolVector2Array( 0, 0, 64, 0, 64, 64, 0, 64 )

[sub_resource type="ConvexPolygonShape2D" id=32]
points = PoolVector2Array( 0, 0, 64, 0, 64, 64, 0, 64 )

[sub_resource type="ConvexPolygonShape2D" id=33]
points = PoolVector2Array( 0, 0, 64, 0, 64, 64, 0, 64 )

[sub_resource type="ConvexPolygonShape2D" id=34]
points = PoolVector2Array( 0, 0, 64, 0, 64, 64, 0, 64 )

[sub_resource type="ConvexPolygonShape2D" id=35]
points = PoolVector2Array( 0, 0, 64, 0, 64, 64, 0, 64 )

[sub_resource type="ConvexPolygonShape2D" id=36]
points = PoolVector2Array( 0, 0, 64, 0, 64, 64, 0, 64 )

[sub_resource type="ConvexPolygonShape2D" id=37]
points = PoolVector2Array( 0, 0, 64, 0, 64, 64, 0, 64 )

[sub_resource type="ConvexPolygonShape2D" id=38]
points = PoolVector2Array( 0, 0, 64, 0, 64, 64, 0, 64 )

[sub_resource type="ConvexPolygonShape2D" id=39]
points = PoolVector2Array( 0, 0, 64, 0, 64, 64, 0, 64 )

[sub_resource type="ConvexPolygonShape2D" id=40]
points = PoolVector2Array( 0, 0, 64, 0, 64, 64, 0, 64 )

[sub_resource type="ConvexPolygonShape2D" id=41]
points = PoolVector2Array( 0, 0, 64, 0, 64, 64, 0, 64 )

[sub_resource type="ConvexPolygonShape2D" id=42]
points = PoolVector2Array( 0, 0, 64, 0, 64, 64, 0, 64 )

[sub_resource type="ConvexPolygonShape2D" id=43]
points = PoolVector2Array( 0, 0, 64, 0, 64, 64, 0, 64 )

[sub_resource type="ConvexPolygonShape2D" id=44]
points = PoolVector2Array( 0, 0, 64, 0, 64, 64, 0, 64 )

[sub_resource type="ConvexPolygonShape2D" id=45]
points = PoolVector2Array( 0, 0, 64, 0, 64, 64, 0, 64 )

[sub_resource type="ConvexPolygonShape2D" id=46]
points = PoolVector2Array( 0, 0, 64, 0, 64, 64, 0, 64 )

[sub_resource type="ConvexPolygonShape2D" id=47]
points = PoolVector2Array( 0, 0, 64, 0, 64, 64, 0, 64 )

[sub_resource type="ConvexPolygonShape2D" id=48]
points = PoolVector2Array( 0, 0, 64, 0, 64, 64, 0, 64 )

[sub_resource type="NavigationPolygon" id=49]
vertices = PoolVector2Array( 0, 0, 64, 0, 64, 64, 0, 64 )
polygons = [ PoolIntArray( 0, 1, 2, 3 ) ]

[sub_resource type="OccluderPolygon2D" id=50]
polygon = PoolVector2Array( 0, 0, 64, 0, 64, 64, 0, 64 )

[sub_resource type="ConvexPolygonShape2D" id=51]
points = PoolVector2Array( 0, 0, 64, 0, 64, 64, 0, 64 )

[sub_resource type="ConvexPolygonShape2D" id=52]
points = PoolVector2Array( 0, 0, 64, 0, 64, 64, 0, 64 )

[sub_resource type="ConvexPolygonShape2D" id=53]
points = PoolVector2Array( 0, 0, 64, 0, 64, 64, 0, 64 )

[sub_resource type="ConvexPolygonShape2D" id=54]
points = PoolVector2Array( 0, 0, 64, 0, 64, 64, 0, 64 )

[sub_resource type="ConvexPolygonShape2D" id=55]
points = PoolVector2Array( 0, 0, 64, 0, 64, 64, 0, 64 )

[sub_resource type="ConvexPolygonShape2D" id=56]
points = PoolVector2Array( 0, 0, 64, 0, 64, 64, 0, 64 )

[sub_resource type="ConvexPolygonShape2D" id=57]
points = PoolVector2Array( 0, 0, 64, 0, 64, 64, 0, 64 )

[sub_resource type="ConvexPolygonShape2D" id=58]
points = PoolVector2Array( 0, 0, 64, 0, 64, 64, 0, 64 )

[sub_resource type="ConvexPolygonShape2D" id=59]
points = PoolVector2Array( 0, 0, 64, 0, 64, 64, 0, 64 )

[sub_resource type="ConvexPolygonShape2D" id=60]
points = PoolVector2Array( 0, 0, 64, 0, 64, 64, 0, 64 )

[sub_resource type="ConvexPolygonShape2D" id=61]
points = PoolVector2Array( 0, 0, 64, 0, 64, 64, 0, 64 )

[sub_resource type="ConvexPolygonShape2D" id=62]
points = PoolVector2Array( 0, 0, 32, 0, 33, 63, 0, 64 )

[sub_resource type="ConvexPolygonShape2D" id=63]
points = PoolVector2Array( 0, 0, 64, 0, 64, 64, 0, 64 )

[sub_resource type="ConvexPolygonShape2D" id=64]
points = PoolVector2Array( 0, 0, 64, 0, 64, 64, 0, 64 )

[sub_resource type="ConvexPolygonShape2D" id=65]
points = PoolVector2Array( 34, 0, 64, 0, 64, 64, 35, 63 )

[sub_resource type="TileSet" id=66]
0/name = "autotile_template_3x3_minimal.png 0"
0/texture = ExtResource( 1 )
0/tex_offset = Vector2( 0, 0 )
0/modulate = Color( 1, 1, 1, 1 )
0/region = Rect2( 0, 0, 768, 256 )
0/tile_mode = 1
0/autotile/bitmask_mode = 1
0/autotile/bitmask_flags = [ Vector2( 0, 0 ), 144, Vector2( 0, 1 ), 146, Vector2( 0, 2 ), 18, Vector2( 0, 3 ), 16, Vector2( 1, 0 ), 176, Vector2( 1, 1 ), 178, Vector2( 1, 2 ), 50, Vector2( 1, 3 ), 48, Vector2( 2, 0 ), 184, Vector2( 2, 1 ), 186, Vector2( 2, 2 ), 58, Vector2( 2, 3 ), 56, Vector2( 3, 0 ), 152, Vector2( 3, 1 ), 154, Vector2( 3, 2 ), 26, Vector2( 3, 3 ), 24, Vector2( 4, 0 ), 187, Vector2( 4, 1 ), 434, Vector2( 4, 2 ), 182, Vector2( 4, 3 ), 250, Vector2( 5, 0 ), 440, Vector2( 5, 1 ), 510, Vector2( 5, 2 ), 447, Vector2( 5, 3 ), 62, Vector2( 6, 0 ), 248, Vector2( 6, 1 ), 507, Vector2( 6, 2 ), 255, Vector2( 6, 3 ), 59, Vector2( 7, 0 ), 190, Vector2( 7, 1 ), 218, Vector2( 7, 2 ), 155, Vector2( 7, 3 ), 442, Vector2( 8, 0 ), 432, Vector2( 8, 1 ), 438, Vector2( 8, 2 ), 446, Vector2( 8, 3 ), 54, Vector2( 9, 0 ), 506, Vector2( 9, 1 ), 254, Vector2( 9, 2 ), 511, Vector2( 9, 3 ), 63, Vector2( 10, 0 ), 504, Vector2( 10, 2 ), 443, Vector2( 10, 3 ), 191, Vector2( 11, 0 ), 216, Vector2( 11, 1 ), 251, Vector2( 11, 2 ), 219, Vector2( 11, 3 ), 27 ]
0/autotile/icon_coordinate = Vector2( 0, 0 )
0/autotile/tile_size = Vector2( 64, 64 )
0/autotile/spacing = 0
0/autotile/occluder_map = [  ]
0/autotile/navpoly_map = [  ]
0/autotile/priority_map = [  ]
0/autotile/z_index_map = [  ]
0/occluder_offset = Vector2( 0, 0 )
0/navigation_offset = Vector2( 0, 0 )
0/shape_offset = Vector2( 0, 0 )
0/shape_transform = Transform2D( 1, 0, 0, 1, 0, 0 )
0/shape = SubResource( 1 )
0/shape_one_way = false
0/shape_one_way_margin = 1.0
0/shapes = [ {
"autotile_coord": Vector2( 0, 0 ),
"one_way": false,
"one_way_margin": 1.0,
"shape": SubResource( 1 ),
"shape_transform": Transform2D( 1, 0, 0, 1, 0, 0 )
}, {
"autotile_coord": Vector2( 2, 0 ),
"one_way": false,
"one_way_margin": 1.0,
"shape": SubResource( 2 ),
"shape_transform": Transform2D( 1, 0, 0, 1, 0, 0 )
}, {
"autotile_coord": Vector2( 3, 0 ),
"one_way": false,
"one_way_margin": 1.0,
"shape": SubResource( 3 ),
"shape_transform": Transform2D( 1, 0, 0, 1, 0, 0 )
}, {
"autotile_coord": Vector2( 4, 0 ),
"one_way": false,
"one_way_margin": 1.0,
"shape": SubResource( 4 ),
"shape_transform": Transform2D( 1, 0, 0, 1, 0, 0 )
}, {
"autotile_coord": Vector2( 5, 0 ),
"one_way": false,
"one_way_margin": 1.0,
"shape": SubResource( 5 ),
"shape_transform": Transform2D( 1, 0, 0, 1, 0, 0 )
}, {
"autotile_coord": Vector2( 6, 0 ),
"one_way": false,
"one_way_margin": 1.0,
"shape": SubResource( 6 ),
"shape_transform": Transform2D( 1, 0, 0, 1, 0, 0 )
}, {
"autotile_coord": Vector2( 8, 0 ),
"one_way": false,
"one_way_margin": 1.0,
"shape": SubResource( 7 ),
"shape_transform": Transform2D( 1, 0, 0, 1, 0, 0 )
}, {
"autotile_coord": Vector2( 7, 0 ),
"one_way": false,
"one_way_margin": 1.0,
"shape": SubResource( 8 ),
"shape_transform": Transform2D( 1, 0, 0, 1, 0, 0 )
}, {
"autotile_coord": Vector2( 1, 0 ),
"one_way": false,
"one_way_margin": 1.0,
"shape": SubResource( 9 ),
"shape_transform": Transform2D( 1, 0, 0, 1, 0, 0 )
}, {
"autotile_coord": Vector2( 0, 1 ),
"one_way": false,
"one_way_margin": 1.0,
"shape": SubResource( 10 ),
"shape_transform": Transform2D( 1, 0, 0, 1, 0, 0 )
}, {
"autotile_coord": Vector2( 1, 1 ),
"one_way": false,
"one_way_margin": 1.0,
"shape": SubResource( 11 ),
"shape_transform": Transform2D( 1, 0, 0, 1, 0, 0 )
}, {
"autotile_coord": Vector2( 2, 1 ),
"one_way": false,
"one_way_margin": 1.0,
"shape": SubResource( 12 ),
"shape_transform": Transform2D( 1, 0, 0, 1, 0, 0 )
}, {
"autotile_coord": Vector2( 3, 1 ),
"one_way": false,
"one_way_margin": 1.0,
"shape": SubResource( 13 ),
"shape_transform": Transform2D( 1, 0, 0, 1, 0, 0 )
}, {
"autotile_coord": Vector2( 5, 1 ),
"one_way": false,
"one_way_margin": 1.0,
"shape": SubResource( 14 ),
"shape_transform": Transform2D( 1, 0, 0, 1, 0, 0 )
}, {
"autotile_coord": Vector2( 4, 1 ),
"one_way": false,
"one_way_margin": 1.0,
"shape": SubResource( 15 ),
"shape_transform": Transform2D( 1, 0, 0, 1, 0, 0 )
}, {
"autotile_coord": Vector2( 6, 1 ),
"one_way": false,
"one_way_margin": 1.0,
"shape": SubResource( 16 ),
"shape_transform": Transform2D( 1, 0, 0, 1, 0, 0 )
}, {
"autotile_coord": Vector2( 7, 1 ),
"one_way": false,
"one_way_margin": 1.0,
"shape": SubResource( 17 ),
"shape_transform": Transform2D( 1, 0, 0, 1, 0, 0 )
}, {
"autotile_coord": Vector2( 8, 1 ),
"one_way": false,
"one_way_margin": 1.0,
"shape": SubResource( 18 ),
"shape_transform": Transform2D( 1, 0, 0, 1, 0, 0 )
}, {
"autotile_coord": Vector2( 9, 0 ),
"one_way": false,
"one_way_margin": 1.0,
"shape": SubResource( 19 ),
"shape_transform": Transform2D( 1, 0, 0, 1, 0, 0 )
}, {
"autotile_coord": Vector2( 11, 0 ),
"one_way": false,
"one_way_margin": 1.0,
"shape": SubResource( 20 ),
"shape_transform": Transform2D( 1, 0, 0, 1, 0, 0 )
}, {
"autotile_coord": Vector2( 10, 0 ),
"one_way": false,
"one_way_margin": 1.0,
"shape": SubResource( 21 ),
"shape_transform": Transform2D( 1, 0, 0, 1, 0, 0 )
}, {
"autotile_coord": Vector2( 9, 1 ),
"one_way": false,
"one_way_margin": 1.0,
"shape": SubResource( 22 ),
"shape_transform": Transform2D( 1, 0, 0, 1, 0, 0 )
}, {
"autotile_coord": Vector2( 10, 1 ),
"one_way": false,
"one_way_margin": 1.0,
"shape": SubResource( 23 ),
"shape_transform": Transform2D( 1, 0, 0, 1, 0, 0 )
}, {
"autotile_coord": Vector2( 11, 1 ),
"one_way": false,
"one_way_margin": 1.0,
"shape": SubResource( 24 ),
"shape_transform": Transform2D( 1, 0, 0, 1, 0, 0 )
}, {
"autotile_coord": Vector2( 11, 2 ),
"one_way": false,
"one_way_margin": 1.0,
"shape": SubResource( 25 ),
"shape_transform": Transform2D( 1, 0, 0, 1, 0, 0 )
}, {
"autotile_coord": Vector2( 10, 2 ),
"one_way": false,
"one_way_margin": 1.0,
"shape": SubResource( 26 ),
"shape_transform": Transform2D( 1, 0, 0, 1, 0, 0 )
}, {
"autotile_coord": Vector2( 10, 3 ),
"one_way": false,
"one_way_margin": 1.0,
"shape": SubResource( 27 ),
"shape_transform": Transform2D( 1, 0, 0, 1, 0, 0 )
}, {
"autotile_coord": Vector2( 11, 3 ),
"one_way": false,
"one_way_margin": 1.0,
"shape": SubResource( 28 ),
"shape_transform": Transform2D( 1, 0, 0, 1, 0, 0 )
}, {
"autotile_coord": Vector2( 8, 3 ),
"one_way": false,
"one_way_margin": 1.0,
"shape": SubResource( 29 ),
"shape_transform": Transform2D( 1, 0, 0, 1, 0, 0 )
}, {
"autotile_coord": Vector2( 8, 2 ),
"one_way": false,
"one_way_margin": 1.0,
"shape": SubResource( 30 ),
"shape_transform": Transform2D( 1, 0, 0, 1, 0, 0 )
}, {
"autotile_coord": Vector2( 9, 2 ),
"one_way": false,
"one_way_margin": 1.0,
"shape": SubResource( 31 ),
"shape_transform": Transform2D( 1, 0, 0, 1, 0, 0 )
}, {
"autotile_coord": Vector2( 9, 3 ),
"one_way": false,
"one_way_margin": 1.0,
"shape": SubResource( 32 ),
"shape_transform": Transform2D( 1, 0, 0, 1, 0, 0 )
}, {
"autotile_coord": Vector2( 6, 2 ),
"one_way": false,
"one_way_margin": 1.0,
"shape": SubResource( 33 ),
"shape_transform": Transform2D( 1, 0, 0, 1, 0, 0 )
}, {
"autotile_coord": Vector2( 7, 2 ),
"one_way": false,
"one_way_margin": 1.0,
"shape": SubResource( 34 ),
"shape_transform": Transform2D( 1, 0, 0, 1, 0, 0 )
}, {
"autotile_coord": Vector2( 7, 3 ),
"one_way": false,
"one_way_margin": 1.0,
"shape": SubResource( 35 ),
"shape_transform": Transform2D( 1, 0, 0, 1, 0, 0 )
}, {
"autotile_coord": Vector2( 6, 3 ),
"one_way": false,
"one_way_margin": 1.0,
"shape": SubResource( 36 ),
"shape_transform": Transform2D( 1, 0, 0, 1, 0, 0 )
}, {
"autotile_coord": Vector2( 5, 3 ),
"one_way": false,
"one_way_margin": 1.0,
"shape": SubResource( 37 ),
"shape_transform": Transform2D( 1, 0, 0, 1, 0, 0 )
}, {
"autotile_coord": Vector2( 5, 2 ),
"one_way": false,
"one_way_margin": 1.0,
"shape": SubResource( 38 ),
"shape_transform": Transform2D( 1, 0, 0, 1, 0, 0 )
}, {
"autotile_coord": Vector2( 4, 2 ),
"one_way": false,
"one_way_margin": 1.0,
"shape": SubResource( 39 ),
"shape_transform": Transform2D( 1, 0, 0, 1, 0, 0 )
}, {
"autotile_coord": Vector2( 4, 3 ),
"one_way": false,
"one_way_margin": 1.0,
"shape": SubResource( 40 ),
"shape_transform": Transform2D( 1, 0, 0, 1, 0, 0 )
}, {
"autotile_coord": Vector2( 0, 2 ),
"one_way": false,
"one_way_margin": 1.0,
"shape": SubResource( 41 ),
"shape_transform": Transform2D( 1, 0, 0, 1, 0, 0 )
}, {
"autotile_coord": Vector2( 0, 3 ),
"one_way": false,
"one_way_margin": 1.0,
"shape": SubResource( 42 ),
"shape_transform": Transform2D( 1, 0, 0, 1, 0, 0 )
}, {
"autotile_coord": Vector2( 1, 2 ),
"one_way": false,
"one_way_margin": 1.0,
"shape": SubResource( 43 ),
"shape_transform": Transform2D( 1, 0, 0, 1, 0, 0 )
}, {
"autotile_coord": Vector2( 1, 3 ),
"one_way": false,
"one_way_margin": 1.0,
"shape": SubResource( 44 ),
"shape_transform": Transform2D( 1, 0, 0, 1, 0, 0 )
}, {
"autotile_coord": Vector2( 2, 2 ),
"one_way": false,
"one_way_margin": 1.0,
"shape": SubResource( 45 ),
"shape_transform": Transform2D( 1, 0, 0, 1, 0, 0 )
}, {
"autotile_coord": Vector2( 2, 3 ),
"one_way": false,
"one_way_margin": 1.0,
"shape": SubResource( 46 ),
"shape_transform": Transform2D( 1, 0, 0, 1, 0, 0 )
}, {
"autotile_coord": Vector2( 3, 2 ),
"one_way": false,
"one_way_margin": 1.0,
"shape": SubResource( 47 ),
"shape_transform": Transform2D( 1, 0, 0, 1, 0, 0 )
}, {
"autotile_coord": Vector2( 3, 3 ),
"one_way": false,
"one_way_margin": 1.0,
"shape": SubResource( 48 ),
"shape_transform": Transform2D( 1, 0, 0, 1, 0, 0 )
} ]
0/z_index = 0
1/name = "spikes.png 1"
1/texture = ExtResource( 2 )
1/tex_offset = Vector2( 0, 0 )
1/modulate = Color( 1, 1, 1, 1 )
1/region = Rect2( 0, 0, 64, 64 )
1/tile_mode = 0
1/occluder_offset = Vector2( 0, 0 )
1/occluder = SubResource( 50 )
1/navigation_offset = Vector2( 0, 0 )
1/navigation = SubResource( 49 )
1/shape_offset = Vector2( 0, 0 )
1/shape_transform = Transform2D( 1, 0, 0, 1, 0, 0 )
1/shape = SubResource( 51 )
1/shape_one_way = false
1/shape_one_way_margin = 1.0
1/shapes = [ {
"autotile_coord": Vector2( 0, 0 ),
"one_way": false,
"one_way_margin": 1.0,
"shape": SubResource( 51 ),
"shape_transform": Transform2D( 1, 0, 0, 1, 0, 0 )
} ]
1/z_index = 0
2/name = "Tileset.png 2"
2/texture = ExtResource( 9 )
2/tex_offset = Vector2( 0, 0 )
2/modulate = Color( 1, 1, 1, 1 )
2/region = Rect2( 0, 0, 576, 192 )
2/tile_mode = 2
2/autotile/icon_coordinate = Vector2( 0, 0 )
2/autotile/tile_size = Vector2( 64, 64 )
2/autotile/spacing = 0
2/autotile/occluder_map = [  ]
2/autotile/navpoly_map = [  ]
2/autotile/priority_map = [  ]
2/autotile/z_index_map = [  ]
2/occluder_offset = Vector2( 0, 0 )
2/navigation_offset = Vector2( 0, 0 )
2/shape_offset = Vector2( 0, 0 )
2/shape_transform = Transform2D( 1, 0, 0, 1, 0, 0 )
2/shape = SubResource( 52 )
2/shape_one_way = false
2/shape_one_way_margin = 1.0
2/shapes = [ {
"autotile_coord": Vector2( 0, 0 ),
"one_way": false,
"one_way_margin": 1.0,
"shape": SubResource( 52 ),
"shape_transform": Transform2D( 1, 0, 0, 1, 0, 0 )
}, {
"autotile_coord": Vector2( 1, 0 ),
"one_way": false,
"one_way_margin": 1.0,
"shape": SubResource( 53 ),
"shape_transform": Transform2D( 1, 0, 0, 1, 0, 0 )
}, {
"autotile_coord": Vector2( 2, 0 ),
"one_way": false,
"one_way_margin": 1.0,
"shape": SubResource( 54 ),
"shape_transform": Transform2D( 1, 0, 0, 1, 0, 0 )
}, {
"autotile_coord": Vector2( 3, 0 ),
"one_way": false,
"one_way_margin": 1.0,
"shape": SubResource( 55 ),
"shape_transform": Transform2D( 1, 0, 0, 1, 0, 0 )
}, {
"autotile_coord": Vector2( 4, 0 ),
"one_way": false,
"one_way_margin": 1.0,
"shape": SubResource( 56 ),
"shape_transform": Transform2D( 1, 0, 0, 1, 0, 0 )
}, {
"autotile_coord": Vector2( 5, 0 ),
"one_way": false,
"one_way_margin": 1.0,
"shape": SubResource( 57 ),
"shape_transform": Transform2D( 1, 0, 0, 1, 0, 0 )
}, {
"autotile_coord": Vector2( 6, 0 ),
"one_way": false,
"one_way_margin": 1.0,
"shape": SubResource( 58 ),
"shape_transform": Transform2D( 1, 0, 0, 1, 0, 0 )
}, {
"autotile_coord": Vector2( 7, 0 ),
"one_way": false,
"one_way_margin": 1.0,
"shape": SubResource( 59 ),
"shape_transform": Transform2D( 1, 0, 0, 1, 0, 0 )
}, {
"autotile_coord": Vector2( 8, 0 ),
"one_way": false,
"one_way_margin": 1.0,
"shape": SubResource( 60 ),
"shape_transform": Transform2D( 1, 0, 0, 1, 0, 0 )
}, {
"autotile_coord": Vector2( 0, 1 ),
"one_way": false,
"one_way_margin": 1.0,
"shape": SubResource( 61 ),
"shape_transform": Transform2D( 1, 0, 0, 1, 0, 0 )
}, {
"autotile_coord": Vector2( 5, 1 ),
"one_way": false,
"one_way_margin": 1.0,
"shape": SubResource( 62 ),
"shape_transform": Transform2D( 1, 0, 0, 1, 0, 0 )
}, {
"autotile_coord": Vector2( 5, 2 ),
"one_way": false,
"one_way_margin": 1.0,
"shape": SubResource( 63 ),
"shape_transform": Transform2D( 1, 0, 0, 1, 0, 0 )
}, {
"autotile_coord": Vector2( 6, 2 ),
"one_way": false,
"one_way_margin": 1.0,
"shape": SubResource( 64 ),
"shape_transform": Transform2D( 1, 0, 0, 1, 0, 0 )
}, {
"autotile_coord": Vector2( 6, 1 ),
"one_way": false,
"one_way_margin": 1.0,
"shape": SubResource( 65 ),
"shape_transform": Transform2D( 1, 0, 0, 1, 0, 0 )
} ]
2/z_index = 0

[sub_resource type="RectangleShape2D" id=67]
extents = Vector2( 96, 32 )

[sub_resource type="RectangleShape2D" id=68]
extents = Vector2( 32, 96 )

[sub_resource type="RectangleShape2D" id=69]
extents = Vector2( 64, 32 )

[node name="TileMap" type="TileMap"]
tile_set = SubResource( 66 )
format = 1
tile_data = PoolIntArray( -196610, 0, 8, -196609, 0, 10, -262144, 0, 10, -262143, 0, 10, -262142, 0, 10, -262141, 0, 10, -262140, 0, 10, -262139, 0, 10, -262138, 0, 10, -262137, 0, 10, -262136, 0, 10, -262135, 0, 10, -262134, 0, 10, -262133, 0, 10, -262132, 0, 10, -262131, 0, 10, -262130, 0, 10, -262129, 0, 10, -262128, 0, 10, -262127, 0, 10, -262126, 0, 10, -262125, 0, 10, -262124, 0, 10, -262123, 0, 10, -262122, 0, 10, -262121, 0, 10, -262120, 0, 10, -262119, 0, 10, -262118, 0, 10, -262117, 0, 10, -262116, 0, 10, -262115, 0, 10, -262114, 0, 10, -262113, 0, 10, -262112, 0, 10, -262111, 0, 10, -262110, 0, 10, -262109, 0, 10, -262108, 0, 10, -262107, 0, 10, -262106, 0, 10, -262105, 0, 10, -262104, 0, 10, -262103, 0, 10, -262102, 0, 10, -262101, 0, 10, -262100, 0, 10, -262099, 0, 10, -262098, 0, 10, -262097, 0, 11, -131074, 0, 65544, -131073, 0, 131081, -196608, 0, 131081, -196607, 0, 131081, -196606, 0, 131081, -196605, 0, 131081, -196604, 0, 131081, -196603, 0, 131081, -196602, 0, 131081, -196601, 0, 131081, -196600, 0, 131081, -196599, 0, 131081, -196598, 0, 131081, -196597, 0, 131081, -196596, 0, 131081, -196595, 0, 131081, -196594, 0, 131081, -196593, 0, 131081, -196592, 0, 131081, -196591, 0, 131081, -196590, 0, 131081, -196589, 0, 131081, -196588, 0, 131081, -196587, 0, 131081, -196586, 0, 131081, -196585, 0, 131081, -196584, 0, 131081, -196583, 0, 131081, -196582, 0, 131081, -196581, 0, 131081, -196580, 0, 131081, -196579, 0, 131081, -196578, 0, 131081, -196577, 0, 131081, -196576, 0, 131081, -196575, 0, 131081, -196574, 0, 131081, -196573, 0, 131081, -196572, 0, 131081, -196571, 0, 131081, -196570, 0, 131081, -196569, 0, 131081, -196568, 0, 131081, -196567, 0, 131081, -196566, 0, 131081, -196565, 0, 131081, -196564, 0, 131081, -196563, 0, 131081, -196562, 0, 131081, -196561, 0, 131083, -65538, 0, 65544, -65537, 0, 131081, -131072, 0, 131081, -131071, 0, 131081, -131070, 0, 131081, -131069, 0, 131081, -131068, 0, 131081, -131067, 0, 131081, -131066, 0, 131081, -131065, 0, 131081, -131064, 0, 131081, -131063, 0, 131081, -131062, 0, 131078, -131061, 0, 196617, -131060, 0, 196617, -131059, 0, 196617, -131058, 0, 196617, -131057, 0, 196617, -131056, 0, 196617, -131055, 0, 196617, -131054, 0, 196617, -131053, 0, 196617, -131052, 0, 196617, -131051, 0, 196617, -131050, 0, 196617, -131049, 0, 196617, -131048, 0, 196617, -131047, 0, 196617, -131046, 0, 196617, -131045, 0, 196617, -131044, 0, 196617, -131043, 0, 196617, -131042, 0, 196617, -131041, 0, 196617, -131040, 0, 196617, -131039, 0, 196617, -131038, 0, 196617, -131037, 0, 196617, -131036, 0, 196617, -131035, 0, 196617, -131034, 0, 196617, -131033, 0, 196617, -131032, 0, 196617, -131031, 0, 196617, -131030, 0, 196617, -131029, 0, 196617, -131028, 0, 196617, -131027, 0, 131077, -131026, 0, 131081, -131025, 0, 131083, -2, 0, 65544, -1, 0, 131081, -65536, 0, 131078, -65535, 0, 196617, -65534, 0, 196617, -65533, 0, 196617, -65532, 0, 196617, -65531, 0, 196617, -65530, 0, 196617, -65529, 0, 196617, -65528, 0, 196617, -65527, 0, 196617, -65526, 0, 196619, -65491, 0, 196616, -65490, 0, 196617, -65489, 0, 196619, 65534, 0, 65544, 65535, 0, 131081, 0, 0, 131083, 131070, 0, 65544, 131071, 0, 131081, 65536, 0, 131083, 196606, 0, 65544, 196607, 0, 131081, 131072, 0, 131083, 262142, 0, 65544, 262143, 0, 131081, 196608, 0, 65542, 196609, 0, 11, 196613, 0, 8, 196614, 0, 10, 196615, 0, 10, 196616, 0, 10, 196617, 0, 10, 196618, 0, 10, 196619, 0, 10, 196620, 0, 10, 196621, 0, 10, 196622, 0, 11, 196625, 0, 8, 196626, 0, 11, 196629, 0, 8, 196630, 0, 11, 196633, 0, 8, 196634, 0, 11, 196637, 0, 8, 196638, 0, 11, 196641, 0, 8, 196642, 0, 11, 196645, 0, 8, 196646, 0, 11, 196649, 0, 8, 196650, 0, 10, 196651, 0, 10, 196652, 0, 10, 196653, 0, 10, 196654, 0, 10, 196655, 0, 11, 327678, 0, 196616, 327679, 0, 196617, 262144, 0, 196617, 262145, 0, 196619, 262149, 0, 196616, 262150, 0, 196617, 262151, 0, 196617, 262152, 0, 196617, 262153, 0, 196617, 262154, 0, 131077, 262155, 0, 131081, 262156, 0, 131081, 262157, 0, 131081, 262158, 0, 131083, 262161, 0, 65544, 262162, 0, 131083, 262165, 0, 65544, 262166, 0, 131083, 262169, 0, 65544, 262170, 0, 131083, 262173, 0, 65544, 262174, 0, 131083, 262177, 0, 65544, 262178, 0, 131083, 262181, 0, 65544, 262182, 0, 131083, 262185, 0, 65544, 262186, 0, 131081, 262187, 0, 131081, 262188, 0, 131081, 262189, 0, 131081, 262190, 0, 131081, 262191, 0, 131083, 327690, 0, 65544, 327691, 0, 131081, 327692, 0, 131081, 327693, 0, 131081, 327694, 0, 65542, 327695, 0, 10, 327696, 0, 10, 327697, 0, 65541, 327698, 0, 65542, 327699, 0, 10, 327700, 0, 10, 327701, 0, 65541, 327702, 0, 65542, 327703, 0, 10, 327704, 0, 10, 327705, 0, 65541, 327706, 0, 65542, 327707, 0, 10, 327708, 0, 10, 327709, 0, 65541, 327710, 0, 65542, 327711, 0, 10, 327712, 0, 10, 327713, 0, 65541, 327714, 0, 65542, 327715, 0, 10, 327716, 0, 10, 327717, 0, 65541, 327718, 0, 65542, 327719, 0, 10, 327720, 0, 10, 327721, 0, 65541, 327722, 0, 131081, 327723, 0, 131081, 327724, 0, 131081, 327725, 0, 131081, 327726, 0, 131081, 327727, 0, 131083, 393226, 0, 196616, 393227, 0, 196617, 393228, 0, 196617, 393229, 0, 196617, 393230, 0, 196617, 393231, 0, 196617, 393232, 0, 196617, 393233, 0, 196617, 393234, 0, 196617, 393235, 0, 196617, 393236, 0, 196617, 393237, 0, 196617, 393238, 0, 196617, 393239, 0, 196617, 393240, 0, 196617, 393241, 0, 196617, 393242, 0, 196617, 393243, 0, 196617, 393244, 0, 196617, 393245, 0, 196617, 393246, 0, 196617, 393247, 0, 196617, 393248, 0, 196617, 393249, 0, 196617, 393250, 0, 196617, 393251, 0, 196617, 393252, 0, 196617, 393253, 0, 196617, 393254, 0, 196617, 393255, 0, 196617, 393256, 0, 196617, 393257, 0, 196617, 393258, 0, 196617, 393259, 0, 196617, 393260, 0, 196617, 393261, 0, 196617, 393262, 0, 196617, 393263, 0, 196619 )
script = ExtResource( 3 )

[node name="Sprite4" type="Sprite" parent="."]
position = Vector2( 1474, 128 )
texture = ExtResource( 6 )
region_enabled = true
region_rect = Rect2( 211.44, 967.391, 3200.28, 738.983 )

[node name="BottomExit" type="Area2D" parent="."]
script = ExtResource( 4 )
direction = 1

[node name="CollisionShape2D" type="CollisionShape2D" parent="BottomExit"]
position = Vector2( 224, 288 )
shape = SubResource( 67 )

[node name="RightExit" type="Area2D" parent="."]
script = ExtResource( 4 )
direction = 3

[node name="CollisionShape2D" type="CollisionShape2D" parent="RightExit"]
position = Vector2( 3040, 96 )
shape = SubResource( 68 )

[node name="BottomEntrance" type="Node2D" parent="."]
position = Vector2( 416, 96 )

[node name="RightEntrance" type="Node2D" parent="."]
position = Vector2( 2912, 96 )

[node name="TabletSite" type="Node2D" parent="."]
position = Vector2( 1664, 96 )

[node name="Sprite3" type="Sprite" parent="."]
position = Vector2( 1490, 130 )
texture = ExtResource( 8 )

[node name="Sprite2" type="Sprite" parent="."]
position = Vector2( 1490, 130 )
texture = ExtResource( 7 )

[node name="Sprite" type="Sprite" parent="."]
position = Vector2( 1472, 128 )
texture = ExtResource( 5 )

[node name="Area2D" type="Area2D" parent="."]
script = ExtResource( 10 )

[node name="CollisionShape2D" type="CollisionShape2D" parent="Area2D"]
position = Vector2( 1024, 288 )
shape = SubResource( 69 )

[node name="CollisionShape2D2" type="CollisionShape2D" parent="Area2D"]
position = Vector2( 1280, 288 )
shape = SubResource( 69 )

[node name="CollisionShape2D3" type="CollisionShape2D" parent="Area2D"]
position = Vector2( 1536, 288 )
shape = SubResource( 69 )

[node name="CollisionShape2D4" type="CollisionShape2D" parent="Area2D"]
position = Vector2( 1792, 288 )
shape = SubResource( 69 )

[node name="CollisionShape2D5" type="CollisionShape2D" parent="Area2D"]
position = Vector2( 2048, 288 )
shape = SubResource( 69 )

[node name="CollisionShape2D6" type="CollisionShape2D" parent="Area2D"]
position = Vector2( 2304, 288 )
shape = SubResource( 69 )

[node name="CollisionShape2D7" type="CollisionShape2D" parent="Area2D"]
position = Vector2( 2560, 288 )
shape = SubResource( 69 )
